{
  "resultCount": 27841,
  "start": 0,
  "page": 1,
  "pageCount": 2785,
  "itemsPerPage": 10,
  "hasNextPage": true,
  "hasPreviousPage": false,
  "items": [
    {
      "advertisementId": 116237026,
      "score": 1.0,
      "agencyId": "q027x",
      "title": "test_title",
      "street": "test_street",
      "zip": "test_zip",
      "text": "Riehen",
      "city": "test_city",
      "country": "CH",
      "geoLocation": "7.6559072,47.5940580",
      "offerType": "RENT",
      "objectCategory": "APPT",
      "objectType": 1,
      "numberRooms": 3.0,
      "floor": 2,
      "surfaceLiving": 85,
      "surfaceUsable": 85,
      "currency": "test_currency",
      "sellingPrice": 1690,
      "price": 1234,
      "priceUnit": "MONTHLY",
      "timestamp": 1536150995369,
      "timestampStr": "05.09.2018",
      "balcony": true,
      "lastModified": 1536150995369,
      "searchInquiryTimestamp": 1532936170000,
      "picFilename1Small": "https://uat.homegate.ch/www/ftp/q027x/images/0001466.jpg/s/75/75",
      "picFilename1Medium": "https://uat.homegate.ch/www/ftp/q027x/images/0001466.jpg/s/187/187",
      "pictures": [
        "https://uat.homegate.ch/www/ftp/q027x/images/0001466.jpg",
        "https://uat.homegate.ch/www/ftp/q027x/images/0001470.jpg",
        "https://uat.homegate.ch/www/ftp/q027x/images/0001487.jpg",
        "https://uat.homegate.ch/www/ftp/q027x/images/0001467.jpg",
        "https://uat.homegate.ch/www/ftp/q027x/images/0001473.jpg",
        "https://uat.homegate.ch/www/ftp/q027x/images/0001474.jpg",
        "https://uat.homegate.ch/www/ftp/q027x/images/0001485.jpg",
        "https://uat.homegate.ch/www/ftp/q027x/images/0001476.jpg",
        "https://uat.homegate.ch/www/ftp/q027x/images/0001490.jpg",
        "https://uat.homegate.ch/www/ftp/q027x/images/0001491.jpg"
      ],
      "objectTypeLabel": "Wohnung",
      "countryLabel": "Schweiz",
      "floorLabel": "2. Etage",
      "description": " neu renovierte Wohnung sep. WC / Bad, Kellerabteil + Estrichabteil, grosse Räume, Einbauschrank Velokeller vorhanden gute Anbindung an ÖV Einkaufsmöglichkeiten in Fussdistanz ",
      "listingType": "TOP",
      "agencyLogoUrl": "https://uat.homegate.ch/neutral/img/logos/l_q027.gif",
      "agencyPhoneDay": "061 606 60 84",
      "contactPerson": "Flavia Gentili",
      "contactPhone": "061 606 60 84",
      "interestedFormType": 2,
      "externalUrls": [
        {
          "url": "https://uat.homegate.ch/www/ftp/q027x/doc/0000027.pdf",
          "type": "DOCUMENT",
          "label": "Grundriss Whg (blau)"
        }
      ],
      "picFilename1": "https://uat.homegate.ch/www/ftp/q027x/images/0001466.jpg"
    }]
}